[
    {
        "id": "BTC",
        "currency": "BTC",
        "symbol": "BTC",
        "name": "Bitcoin",
        "logo_url": "https://s3.us-east-2.amazonaws.com/nomics-api/static/images/currencies/btc.svg",
        "status": "active",
        "price": "34386.94012510",
        "price_date": "2021-05-23T00:00:00Z",
        "price_timestamp": "2021-05-23T21:20:00Z",
        "circulating_supply": "18713700",
        "max_supply": "21000000",
        "market_cap": "643506881419",
        "market_cap_dominance": "0.4312",
        "num_exchanges": "384",
        "num_pairs": "60305",
        "num_pairs_unmapped": "5108",
        "first_candle": "2011-08-18T00:00:00Z",
        "first_trade": "2011-08-18T00:00:00Z",
        "first_order_book": "2017-01-06T00:00:00Z",
        "rank": "1",
        "rank_delta": "0",
        "high": "63501.98081080",
        "high_timestamp": "2021-04-13T00:00:00Z",
        "1d": {
            "volume": "82035984465.62",
            "price_change": "-3937.28769463",
            "price_change_pct": "-0.1027",
            "volume_change": "12168140657.26",
            "volume_change_pct": "0.1742",
            "market_cap_change": "-73681220731.05",
            "market_cap_change_pct": "-0.1027"
        },
        "7d": {
            "volume": "615954107993.98",
            "price_change": "-11787.27106239",
            "price_change_pct": "-0.2553",
            "volume_change": "37015461634.41",
            "volume_change_pct": "0.0639",
            "market_cap_change": "-220494569123.77",
            "market_cap_change_pct": "-0.2552"
        },
        "30d": {
            "volume": "2259742309768.77",
            "price_change": "-15867.13061065",
            "price_change_pct": "-0.3157",
            "volume_change": "77765813205.48",
            "volume_change_pct": "0.0356",
            "market_cap_change": "-295718131472.96",
            "market_cap_change_pct": "-0.3149"
        },
        "365d": {
            "volume": "16107310323011.34",
            "price_change": "25539.98350783",
            "price_change_pct": "2.8869",
            "volume_change": "6095479899667.65",
            "volume_change_pct": "0.6088",
            "market_cap_change": "480863714363.64",
            "market_cap_change_pct": "2.9566"
        },
        "ytd": {
            "volume": "10162860405681.23",
            "price_change": "1045.14758804",
            "price_change_pct": "0.0313",
            "volume_change": "6214382579236.10",
            "volume_change_pct": "1.5739",
            "market_cap_change": "23784884014.83",
            "market_cap_change_pct": "0.0384"
        }
    },
    {
        "id": "ETH",
        "currency": "ETH",
        "symbol": "ETH",
        "name": "Ethereum",
        "logo_url": "https://s3.us-east-2.amazonaws.com/nomics-api/static/images/currencies/eth.svg",
        "status": "active",
        "price": "2137.93170053",
        "price_date": "2021-05-23T00:00:00Z",
        "price_timestamp": "2021-05-23T21:20:00Z",
        "circulating_supply": "115996056",
        "market_cap": "247991645924",
        "market_cap_dominance": "0.1662",
        "num_exchanges": "389",
        "num_pairs": "41846",
        "num_pairs_unmapped": "27291",
        "first_candle": "2015-08-07T00:00:00Z",
        "first_trade": "2015-08-07T00:00:00Z",
        "first_order_book": "2018-08-29T00:00:00Z",
        "rank": "2",
        "rank_delta": "0",
        "high": "4164.64414157",
        "high_timestamp": "2021-05-11T00:00:00Z",
        "1d": {
            "volume": "103383437867.92",
            "price_change": "-234.59185080",
            "price_change_pct": "-0.0989",
            "volume_change": "-15156387693.94",
            "volume_change_pct": "-0.1279",
            "market_cap_change": "-27180041962.26",
            "market_cap_change_pct": "-0.0988"
        },
        "7d": {
            "volume": "607788112684.34",
            "price_change": "-1428.87412121",
            "price_change_pct": "-0.4006",
            "volume_change": "49787848555.70",
            "volume_change_pct": "0.0892",
            "market_cap_change": "-165407896985.44",
            "market_cap_change_pct": "-0.4001"
        },
        "30d": {
            "volume": "2397545388107.03",
            "price_change": "-214.26991982",
            "price_change_pct": "-0.0911",
            "volume_change": "750632396233.39",
            "volume_change_pct": "0.4558",
            "market_cap_change": "-23902491466.19",
            "market_cap_change_pct": "-0.0879"
        },
        "365d": {
            "volume": "10484033247466.98",
            "price_change": "1935.22832985",
            "price_change_pct": "9.5471",
            "volume_change": "6417653271407.08",
            "volume_change_pct": "1.5782",
            "market_cap_change": "225481327239.72",
            "market_cap_change_pct": "10.0168"
        },
        "ytd": {
            "volume": "7419911563100.59",
            "price_change": "1167.97859827",
            "price_change_pct": "1.2042",
            "volume_change": "5326981941491.07",
            "volume_change_pct": "2.5452",
            "market_cap_change": "137353997026.90",
            "market_cap_change_pct": "1.2415"
        }
    },
    {
        "id": "USDT",
        "currency": "USDT",
        "symbol": "USDT",
        "name": "Tether",
        "logo_url": "https://s3.us-east-2.amazonaws.com/nomics-api/static/images/currencies/usdt.svg",
        "status": "active",
        "price": "1.00508650",
        "price_date": "2021-05-23T00:00:00Z",
        "price_timestamp": "2021-05-23T21:20:00Z",
        "circulating_supply": "59616392311",
        "market_cap": "59919631039",
        "market_cap_dominance": "0.0401",
        "num_exchanges": "320",
        "num_pairs": "30809",
        "num_pairs_unmapped": "5690",
        "first_candle": "2013-12-27T00:00:00Z",
        "first_trade": "2013-12-27T00:00:00Z",
        "first_order_book": "2018-08-29T00:00:00Z",
        "rank": "3",
        "rank_delta": "0",
        "high": "1.09256076",
        "high_timestamp": "2017-12-07T00:00:00Z",
        "1d": {
            "volume": "196692089656.24",
            "price_change": "0.01351553",
            "price_change_pct": "0.0136",
            "volume_change": "21716133181.76",
            "volume_change_pct": "0.1241",
            "market_cap_change": "825578639.71",
            "market_cap_change_pct": "0.0140"
        },
        "7d": {
            "volume": "1511860937629.56",
            "price_change": "0.07448553",
            "price_change_pct": "0.0800",
            "volume_change": "-84424781120.32",
            "volume_change_pct": "-0.0529",
            "market_cap_change": "5487105867.83",
            "market_cap_change_pct": "0.1008"
        },
        "30d": {
            "volume": "5853490317068.46",
            "price_change": "0.04273878",
            "price_change_pct": "0.0444",
            "volume_change": "919055770492.56",
            "volume_change_pct": "0.1863",
            "market_cap_change": "12357627611.37",
            "market_cap_change_pct": "0.2598"
        },
        "365d": {
            "volume": "30533186065344.15",
            "price_change": "-0.00426618",
            "price_change_pct": "-0.0042",
            "volume_change": "17954046097023.83",
            "volume_change_pct": "1.4273",
            "market_cap_change": "50922763544.32",
            "market_cap_change_pct": "5.6601"
        },
        "ytd": {
            "volume": "20938504759257.08",
            "price_change": "-0.01312771",
            "price_change_pct": "-0.0129",
            "volume_change": "14083620476638.21",
            "volume_change_pct": "2.0545",
            "market_cap_change": "38605416852.53",
            "market_cap_change_pct": "1.8113"
        }
    },
    {
        "id": "ADA",
        "currency": "ADA",
        "symbol": "ADA",
        "name": "Cardano",
        "logo_url": "https://s3.us-east-2.amazonaws.com/nomics-api/static/images/currencies/ada.svg",
        "status": "active",
        "price": "1.37857599",
        "price_date": "2021-05-23T00:00:00Z",
        "price_timestamp": "2021-05-23T21:20:00Z",
        "circulating_supply": "32066390668",
        "max_supply": "45000000000",
        "market_cap": "44205956201",
        "market_cap_dominance": "0.0296",
        "num_exchanges": "102",
        "num_pairs": "299",
        "num_pairs_unmapped": "0",
        "first_candle": "2017-10-01T00:00:00Z",
        "first_trade": "2017-11-22T00:00:00Z",
        "first_order_book": "2018-08-29T00:00:00Z",
        "rank": "4",
        "rank_delta": "0",
        "high": "2.33300272",
        "high_timestamp": "2021-05-16T00:00:00Z",
        "1d": {
            "volume": "9495621864.64",
            "price_change": "-0.13505234",
            "price_change_pct": "-0.0892",
            "volume_change": "537473252.59",
            "volume_change_pct": "0.0600",
            "market_cap_change": "-4330640984.54",
            "market_cap_change_pct": "-0.0892"
        },
        "7d": {
            "volume": "80576152341.15",
            "price_change": "-0.93734312",
            "price_change_pct": "-0.4047",
            "volume_change": "-3470229409.33",
            "volume_change_pct": "-0.0413",
            "market_cap_change": "-30057210558.53",
            "market_cap_change_pct": "-0.4047"
        },
        "30d": {
            "volume": "243154805174.61",
            "price_change": "0.22441017",
            "price_change_pct": "0.1944",
            "volume_change": "93639659699.20",
            "volume_change_pct": "0.6263",
            "market_cap_change": "7218249953.17",
            "market_cap_change_pct": "0.1952"
        },
        "365d": {
            "volume": "1039655971303.18",
            "price_change": "1.32661191",
            "price_change_pct": "25.5294",
            "volume_change": "995762240827.21",
            "volume_change_pct": "22.6858",
            "market_cap_change": "42589224735.91",
            "market_cap_change_pct": "26.3428"
        },
        "ytd": {
            "volume": "892044615389.25",
            "price_change": "1.17157028",
            "price_change_pct": "5.6596",
            "volume_change": "783179085848.52",
            "volume_change_pct": "7.1940",
            "market_cap_change": "37765494133.35",
            "market_cap_change_pct": "5.8638"
        }
    },
    {
        "id": "DOGE",
        "currency": "DOGE",
        "symbol": "DOGE",
        "name": "Dogecoin",
        "logo_url": "https://s3.us-east-2.amazonaws.com/nomics-api/static/images/currencies/doge.svg",
        "status": "active",
        "price": "0.32218311",
        "price_date": "2021-05-23T00:00:00Z",
        "price_timestamp": "2021-05-23T21:20:00Z",
        "circulating_supply": "129721566471",
        "market_cap": "41794098224",
        "market_cap_dominance": "0.0280",
        "num_exchanges": "187",
        "num_pairs": "2757",
        "num_pairs_unmapped": "1014",
        "first_candle": "2014-01-21T00:00:00Z",
        "first_trade": "2014-01-21T00:00:00Z",
        "first_order_book": "2018-09-12T00:00:00Z",
        "rank": "5",
        "rank_delta": "1",
        "high": "0.68313499",
        "high_timestamp": "2021-05-07T00:00:00Z",
        "1d": {
            "volume": "9779682636.50",
            "price_change": "-0.02313646",
            "price_change_pct": "-0.0670",
            "volume_change": "1952919640.89",
            "volume_change_pct": "0.2495",
            "market_cap_change": "-2996578916.34",
            "market_cap_change_pct": "-0.0669"
        },
        "7d": {
            "volume": "85740980702.55",
            "price_change": "-0.19871787",
            "price_change_pct": "-0.3815",
            "volume_change": "-74117612535.06",
            "volume_change_pct": "-0.4636",
            "market_cap_change": "-25727218094.28",
            "market_cap_change_pct": "-0.3810"
        },
        "30d": {
            "volume": "644950905932.49",
            "price_change": "0.07065074",
            "price_change_pct": "0.2809",
            "volume_change": "236888967458.42",
            "volume_change_pct": "0.5805",
            "market_cap_change": "9269125809.74",
            "market_cap_change_pct": "0.2850"
        },
        "365d": {
            "volume": "1331520024235.29",
            "price_change": "0.31969824",
            "price_change_pct": "128.6578",
            "volume_change": "1305730640905.26",
            "volume_change_pct": "50.6305",
            "market_cap_change": "41484279382.54",
            "market_cap_change_pct": "133.8985"
        },
        "ytd": {
            "volume": "1295267497102.43",
            "price_change": "0.31227023",
            "price_change_pct": "31.5015",
            "volume_change": "1271882022956.46",
            "volume_change_pct": "54.3877",
            "market_cap_change": "40527744325.29",
            "market_cap_change_pct": "32.0035"
        }
    },
    {
        "id": "BNB",
        "currency": "BNB",
        "symbol": "BNB",
        "name": "Binance Coin",
        "logo_url": "https://s3.us-east-2.amazonaws.com/nomics-api/static/images/currencies/bnb.svg",
        "status": "active",
        "price": "261.15967634",
        "price_date": "2021-05-23T00:00:00Z",
        "price_timestamp": "2021-05-23T21:20:00Z",
        "circulating_supply": "154533652",
        "max_supply": "170533652",
        "market_cap": "40357958513",
        "market_cap_dominance": "0.0270",
        "num_exchanges": "125",
        "num_pairs": "3088",
        "num_pairs_unmapped": "5063",
        "first_candle": "2017-07-14T00:00:00Z",
        "first_trade": "2017-07-14T00:00:00Z",
        "first_order_book": "2018-08-29T00:00:00Z",
        "rank": "6",
        "rank_delta": "-1",
        "high": "676.47444022",
        "high_timestamp": "2021-05-03T00:00:00Z",
        "1d": {
            "volume": "5228091521.02",
            "price_change": "-52.39212198",
            "price_change_pct": "-0.1671",
            "volume_change": "332663472.11",
            "volume_change_pct": "0.0680",
            "market_cap_change": "-8096345940.93",
            "market_cap_change_pct": "-0.1671"
        },
        "7d": {
            "volume": "42427081064.22",
            "price_change": "-300.13808069",
            "price_change_pct": "-0.5347",
            "volume_change": "-3200215264.03",
            "volume_change_pct": "-0.0701",
            "market_cap_change": "-46381433683.90",
            "market_cap_change_pct": "-0.5347"
        },
        "30d": {
            "volume": "182118810105.23",
            "price_change": "-265.98665143",
            "price_change_pct": "-0.5046",
            "volume_change": "-41792059388.56",
            "volume_change_pct": "-0.1866",
            "market_cap_change": "-41103888602.73",
            "market_cap_change_pct": "-0.5046"
        },
        "365d": {
            "volume": "769285589578.14",
            "price_change": "245.05604446",
            "price_change_pct": "15.2174",
            "volume_change": "657513763172.60",
            "volume_change_pct": "5.8826",
            "market_cap_change": "37976489853.99",
            "market_cap_change_pct": "15.9467"
        },
        "ytd": {
            "volume": "684769157643.78",
            "price_change": "219.87481409",
            "price_change_pct": "5.3258",
            "volume_change": "620168002020.76",
            "volume_change_pct": "9.6000",
            "market_cap_change": "34252590091.18",
            "market_cap_change_pct": "5.6102"
        }
    },
    {
        "id": "XRP",
        "currency": "XRP",
        "symbol": "XRP",
        "name": "Ripple",
        "logo_url": "https://s3.us-east-2.amazonaws.com/nomics-api/static/images/currencies/XRP.svg",
        "status": "active",
        "price": "0.78788462",
        "price_date": "2021-05-23T00:00:00Z",
        "price_timestamp": "2021-05-23T21:20:00Z",
        "circulating_supply": "46135372183",
        "max_supply": "100000000000",
        "market_cap": "36349349952",
        "market_cap_dominance": "0.0244",
        "num_exchanges": "254",
        "num_pairs": "1507",
        "num_pairs_unmapped": "57",
        "first_candle": "2013-05-09T00:00:00Z",
        "first_trade": "2013-05-09T00:00:00Z",
        "first_order_book": "2018-08-29T00:00:00Z",
        "rank": "7",
        "rank_delta": "0",
        "high": "2.77001614",
        "high_timestamp": "2018-01-07T00:00:00Z",
        "1d": {
            "volume": "12455708001.53",
            "price_change": "-0.13341657",
            "price_change_pct": "-0.1448",
            "volume_change": "698542303.39",
            "volume_change_pct": "0.0594",
            "market_cap_change": "-6155223035.58",
            "market_cap_change_pct": "-0.1448"
        },
        "7d": {
            "volume": "113259195981.63",
            "price_change": "-0.65395581",
            "price_change_pct": "-0.4536",
            "volume_change": "21750573573.65",
            "volume_change_pct": "0.2377",
            "market_cap_change": "-30040989011.64",
            "market_cap_change_pct": "-0.4525"
        },
        "30d": {
            "volume": "416973016641.98",
            "price_change": "-0.37590684",
            "price_change_pct": "-0.3230",
            "volume_change": "-113359516815.67",
            "volume_change_pct": "-0.2138",
            "market_cap_change": "-17200053538.19",
            "market_cap_change_pct": "-0.3212"
        },
        "365d": {
            "volume": "2358951664279.42",
            "price_change": "0.59205172",
            "price_change_pct": "3.0232",
            "volume_change": "1719341243639.78",
            "volume_change_pct": "2.6881",
            "market_cap_change": "27710602073.34",
            "market_cap_change_pct": "3.2077"
        },
        "ytd": {
            "volume": "1528507266794.72",
            "price_change": "0.56403110",
            "price_change_pct": "2.5196",
            "volume_change": "848500233978.48",
            "volume_change_pct": "1.2478",
            "market_cap_change": "26180627012.17",
            "market_cap_change_pct": "2.5746"
        }
    },
    {
        "id": "HEX",
        "currency": "HEX",
        "symbol": "HEX",
        "name": "HEX",
        "logo_url": "https://s3.us-east-2.amazonaws.com/nomics-api/static/images/currencies/HEX.png",
        "status": "active",
        "price": "0.03967972",
        "price_date": "2021-05-23T00:00:00Z",
        "price_timestamp": "2021-05-23T21:20:00Z",
        "circulating_supply": "572568211561",
        "max_supply": "633126462841",
        "market_cap": "22719347251",
        "market_cap_dominance": "0.0152",
        "num_exchanges": "28",
        "num_pairs": "82",
        "num_pairs_unmapped": "7",
        "first_candle": "2019-12-13T00:00:00Z",
        "first_trade": "2020-06-09T00:00:00Z",
        "first_order_book": "2020-03-11T00:00:00Z",
        "rank": "8",
        "rank_delta": "0",
        "high": "0.06409580",
        "high_timestamp": "2021-05-13T00:00:00Z",
        "1d": {
            "volume": "20309120.51",
            "price_change": "-0.00790862",
            "price_change_pct": "-0.1662",
            "volume_change": "-2073038.51",
            "volume_change_pct": "-0.0926",
            "market_cap_change": "-4495328932.72",
            "market_cap_change_pct": "-0.1652"
        },
        "7d": {
            "volume": "149627320.43",
            "price_change": "-0.01166237",
            "price_change_pct": "-0.2272",
            "volume_change": "-86150016.52",
            "volume_change_pct": "-0.3654",
            "market_cap_change": "-6624211689.83",
            "market_cap_change_pct": "-0.2257"
        },
        "30d": {
            "volume": "590809495.45",
            "price_change": "0.02315888",
            "price_change_pct": "1.4018",
            "volume_change": "350656010.26",
            "volume_change_pct": "1.4601",
            "market_cap_change": "13303750015.92",
            "market_cap_change_pct": "1.4129"
        },
        "365d": {
            "volume": "1956358425.51",
            "price_change": "0.03581943",
            "price_change_pct": "9.2789",
            "volume_change": "1913901905.56",
            "volume_change_pct": "45.0791",
            "market_cap_change": "22020064461.90",
            "market_cap_change_pct": "31.4895"
        },
        "ytd": {
            "volume": "1251614788.11",
            "price_change": "0.02744439",
            "price_change_pct": "2.2430",
            "volume_change": "655716274.14",
            "volume_change_pct": "1.1004",
            "market_cap_change": "15783389218.99",
            "market_cap_change_pct": "2.2756"
        }
    }
]